…
prop_unsolved <- function(df) {

  ci_unsolved <- prop.test(df$unsolved, df$total)
  
  broom::tidy(ci_unsolved) %>% 
    select(estimate, conf.low, conf.high)
}

city_nest %>% 
  mutate(prop_unsolved = map(city_nest$data, prop_unsolved)) %>% 
  unnest()
```

    ## # A tibble: 50 x 6
    ##    city_state      unsolved total estimate conf.low conf.high
    ##    <chr>              <int> <int>    <dbl>    <dbl>     <dbl>
    ##  1 Albuquerque, NM      146   378    0.386    0.337     0.438
    ##  2 Atlanta, GA          373   973    0.383    0.353     0.415
    ##  3 Baltimore, MD       1825  2827    0.646    0.628     0.663
    ##  4 Baton Rouge, LA      196   424    0.462    0.414     0.511
    ##  5 Birmingham, AL       347   800    0.434    0.399     0.469
    ##  6 Boston, MA           310   614    0.505    0.465     0.545
    ##  7 Buffalo, NY          319   521    0.612    0.569     0.654
    ##  8 Charlotte, NC        206   687    0.300    0.266     0.336
    ##  9 Chicago, IL         4073  5535    0.736    0.724     0.747
    ## 10 Cincinnati, OH       309   694    0.445    0.408     0.483
    ## # ... with 40 more rows
…
